%YAML 1.1
%TAG !u! tag:unity3d.com,2011:
--- !u!114 &11400000
MonoBehaviour:
  m_ObjectHideFlags: 0
  m_CorrespondingSourceObject: {fileID: 0}
  m_PrefabInstance: {fileID: 0}
  m_PrefabAsset: {fileID: 0}
  m_GameObject: {fileID: 0}
  m_Enabled: 1
  m_EditorHideFlags: 0
  m_Script: {fileID: 11500000, guid: 5b11a58205ec3474ca216360e9fa74a8, type: 3}
  m_Name: CanvasOverKoni Shared Data
  m_EditorClassIdentifier: 
  m_TableCollectionName: CanvasOverKoni
  m_TableCollectionNameGuidString: 43d250f4c34d0604fad0b1c6e2fe2165
  m_Entries:
  - m_Id: 67372482560
    m_Key: VR_Koni_UICombined/GUI-Presenter/CanvasOverKoni/ResultScreen/TextOperationResult
    m_Metadata:
      m_Items: []
  - m_Id: 107541331968
    m_Key: VR_Koni_UICombined/GUI-Presenter/CanvasOverKoni/ResultScreen/MiddleScreens/SwitchViewButtons/ButtonSwitchLeft/Text
    m_Metadata:
      m_Items: []
  - m_Id: 128726761472
    m_Key: VR_Koni_UICombined/GUI-Presenter/CanvasOverKoni/ResultScreen/MiddleScreens/SwitchViewButtons/ButtonSwitchRight/Text
    m_Metadata:
      m_Items: []
  - m_Id: 152483299328
    m_Key: VR_Koni_UICombined/GUI-Presenter/CanvasOverKoni/ResultScreen/MiddleScreens/ResultCones/TextExcisedCone
    m_Metadata:
      m_Items: []
  - m_Id: 190286561280
    m_Key: VR_Koni_UICombined/GUI-Presenter/CanvasOverKoni/ResultScreen/MiddleScreens/ResultCharts/TextDepthChart
    m_Metadata:
      m_Items: []
  - m_Id: 343479320576
    m_Key: VR_Koni_UICombined/GUI-Presenter/CanvasOverKoni/ResultScreen/MiddleScreens/ResultCharts/GraphAxis/GraphContainer/XDescription
    m_Metadata:
      m_Items: []
  - m_Id: 371677626368
    m_Key: VR_Koni_UICombined/GUI-Presenter/CanvasOverKoni/ResultScreen/MiddleScreens/ResultCharts/GraphAxis/GraphContainer/YDescription
    m_Metadata:
      m_Items: []
  - m_Id: 419052290048
    m_Key: VR_Koni_UICombined/GUI-Presenter/CanvasOverKoni/ResultScreen/MiddleScreens/ResultStatistics
      /TextStatistics
    m_Metadata:
      m_Items: []
  - m_Id: 455358185472
    m_Key: VR_Koni_UICombined/GUI-Presenter/CanvasOverKoni/ResultScreen/MiddleScreens/ResultStatistics
      /TextAreaDescription/TextLLetzScorePrompt
    m_Metadata:
      m_Items: []
  - m_Id: 480930856960
    m_Key: VR_Koni_UICombined/GUI-Presenter/CanvasOverKoni/ResultScreen/MiddleScreens/ResultStatistics
      /TextAreaDescription/TextMaxDepthPrompt
    m_Metadata:
      m_Items: []
  - m_Id: 504918081536
    m_Key: VR_Koni_UICombined/GUI-Presenter/CanvasOverKoni/ResultScreen/MiddleScreens/ResultStatistics
      /TextAreaDescription/TextNumCutsPrompt
    m_Metadata:
      m_Items: []
  - m_Id: 529547034624
    m_Key: VR_Koni_UICombined/GUI-Presenter/CanvasOverKoni/ResultScreen/MiddleScreens/ResultStatistics
      /TextAreaDescription/TextContactTimePrompt
    m_Metadata:
      m_Items: []
  - m_Id: 559079129088
    m_Key: VR_Koni_UICombined/GUI-Presenter/CanvasOverKoni/ResultScreen/MiddleScreens/ResultStatistics
      /TextAreaDescription/TextVolumePrompt
    m_Metadata:
      m_Items: []
  - m_Id: 574455447552
    m_Key: VR_Koni_UICombined/GUI-Presenter/CanvasOverKoni/ResultScreen/MiddleScreens/ResultStatistics
      /TextAreaDescription/TextDurationSlingTurnedOnPrompt
    m_Metadata:
      m_Items: []
  - m_Id: 673885618176
    m_Key: VR_Koni_UICombined/GUI-Presenter/CanvasOverKoni/ResultScreen/LowerButtons/ButtonRepeatOperation/Text
    m_Metadata:
      m_Items: []
  - m_Id: 711122649088
    m_Key: VR_Koni_UICombined/GUI-Presenter/CanvasOverKoni/ResultScreen/LowerButtons/ButtonBackToMenu/Text
    m_Metadata:
      m_Items: []
  - m_Id: 43192606798299136
    m_Key: Main_Menu_Overlay/MenuCanvas/Overlay/NextButton/Text (TMP) 1
    m_Metadata:
      m_Items: []
  - m_Id: 43193615603908608
    m_Key: Main_Menu_Overlay/MenuCanvas/Overlay/StopButton/Text (TMP)
    m_Metadata:
      m_Items: []
  - m_Id: 43467101526212608
    m_Key: Main_Menu_Overlay/MenuCanvas/Overlay/Description 2
    m_Metadata:
      m_Items: []
  - m_Id: 43467351141826560
    m_Key: Main_Menu_Overlay/MenuCanvas/Overlay/BackButton/Text (TMP)
    m_Metadata:
      m_Items: []
  - m_Id: 43467691505401856
    m_Key: Main_Menu_Overlay/MenuCanvas/Overlay/NextButton/Text (TMP) 2
    m_Metadata:
      m_Items: []
  - m_Id: 43468005109317632
    m_Key: Main_Menu_Overlay/MenuCanvas/Overlay/StopButton/Text (TMP) 1
    m_Metadata:
      m_Items: []
  - m_Id: 43469101114507264
    m_Key: Main_Menu_Overlay/MenuCanvas
    m_Metadata:
      m_Items: []
  - m_Id: 43469147906162688
    m_Key: Main_Menu_Overlay/MenuCanvas 1
    m_Metadata:
      m_Items: []
  - m_Id: 43469193309503488
    m_Key: Main_Menu_Overlay/MenuCanvas 2
    m_Metadata:
      m_Items: []
  - m_Id: 43469229208551424
    m_Key: Main_Menu_Overlay/MenuCanvas 3
    m_Metadata:
      m_Items: []
  - m_Id: 43469261693435904
    m_Key: Main_Menu_Overlay/MenuCanvas 4
    m_Metadata:
      m_Items: []
  - m_Id: 43469328290594816
    m_Key: Main_Menu_Overlay/MenuCanvas 5
    m_Metadata:
      m_Items: []
  - m_Id: 51864166594502656
    m_Key: Tutorial3/UI/PositionUI/Lesson3/Task3.2/BasicUISetup (1)/BottomScreen/BasicPanelUI/PreviousButton
    m_Metadata:
      m_Items: []
  - m_Id: 51864292025163776
    m_Key: Tutorial3/UI/PositionUI/Lesson3/Task3.3/BasicUISetup (1)/BottomScreen/BasicPanelUI/PreviousButton
    m_Metadata:
      m_Items: []
  - m_Id: 51884491621564416
    m_Key: Tutorial3/UI/PositionUI/Lesson2/Task2.1/BasicUISetup (1)/MainScreen/BasicPanelUI/Task
    m_Metadata:
      m_Items: []
  - m_Id: 50515660886482944
    m_Key: OperationResultLooseTitle
    m_Metadata:
      m_Items: []
  m_Metadata:
    m_Items: []
  m_KeyGenerator:
    rid: 6658872410820313269
  references:
    version: 2
    RefIds:
    - rid: 6658872410820313269
      type: {class: DistributedUIDGenerator, ns: UnityEngine.Localization.Tables,
        asm: Unity.Localization}
      data:
        m_CustomEpoch: 1707407818465
