%YAML 1.1
%TAG !u! tag:unity3d.com,2011:
--- !u!1001 &5214953729706885611
PrefabInstance:
  m_ObjectHideFlags: 0
  serializedVersion: 2
  m_Modification:
    serializedVersion: 3
    m_TransformParent: {fileID: 0}
    m_Modifications:
    - target: {fileID: 2983094534208107850, guid: 8d9a7eb22e3050644a4684b2e41d241d,
        type: 3}
      propertyPath: m_LocalScale.x
      value: 1
      objectReference: {fileID: 0}
    - target: {fileID: 2983094534208107850, guid: 8d9a7eb22e3050644a4684b2e41d241d,
        type: 3}
      propertyPath: m_LocalScale.y
      value: 1
      objectReference: {fileID: 0}
    - target: {fileID: 2983094534208107850, guid: 8d9a7eb22e3050644a4684b2e41d241d,
        type: 3}
      propertyPath: m_LocalScale.z
      value: 1
      objectReference: {fileID: 0}
    - target: {fileID: 2983094534208107850, guid: 8d9a7eb22e3050644a4684b2e41d241d,
        type: 3}
      propertyPath: m_LocalPosition.x
      value: 0.8598
      objectReference: {fileID: 0}
    - target: {fileID: 2983094534208107850, guid: 8d9a7eb22e3050644a4684b2e41d241d,
        type: 3}
      propertyPath: m_LocalPosition.y
      value: 1.2258
      objectReference: {fileID: 0}
    - target: {fileID: 2983094534208107850, guid: 8d9a7eb22e3050644a4684b2e41d241d,
        type: 3}
      propertyPath: m_LocalPosition.z
      value: 0.036
      objectReference: {fileID: 0}
    - target: {fileID: 2983094534208107850, guid: 8d9a7eb22e3050644a4684b2e41d241d,
        type: 3}
      propertyPath: m_LocalRotation.w
      value: 0.6830127
      objectReference: {fileID: 0}
    - target: {fileID: 2983094534208107850, guid: 8d9a7eb22e3050644a4684b2e41d241d,
        type: 3}
      propertyPath: m_LocalRotation.x
      value: -0.18301266
      objectReference: {fileID: 0}
    - target: {fileID: 2983094534208107850, guid: 8d9a7eb22e3050644a4684b2e41d241d,
        type: 3}
      propertyPath: m_LocalRotation.y
      value: -0.6830127
      objectReference: {fileID: 0}
    - target: {fileID: 2983094534208107850, guid: 8d9a7eb22e3050644a4684b2e41d241d,
        type: 3}
      propertyPath: m_LocalRotation.z
      value: -0.18301266
      objectReference: {fileID: 0}
    - target: {fileID: 2983094534208107850, guid: 8d9a7eb22e3050644a4684b2e41d241d,
        type: 3}
      propertyPath: m_LocalEulerAnglesHint.x
      value: -30
      objectReference: {fileID: 0}
    - target: {fileID: 2983094534208107850, guid: 8d9a7eb22e3050644a4684b2e41d241d,
        type: 3}
      propertyPath: m_LocalEulerAnglesHint.y
      value: -90
      objectReference: {fileID: 0}
    - target: {fileID: 2983094534208107850, guid: 8d9a7eb22e3050644a4684b2e41d241d,
        type: 3}
      propertyPath: m_LocalEulerAnglesHint.z
      value: 0
      objectReference: {fileID: 0}
    - target: {fileID: 7250697494626995539, guid: 8d9a7eb22e3050644a4684b2e41d241d,
        type: 3}
      propertyPath: m_Name
      value: CancerCutoutPrep Variant
      objectReference: {fileID: 0}
    - target: {fileID: 7250697494626995539, guid: 8d9a7eb22e3050644a4684b2e41d241d,
        type: 3}
      propertyPath: m_Layer
      value: 3
      objectReference: {fileID: 0}
    m_RemovedComponents: []
    m_RemovedGameObjects: []
    m_AddedGameObjects: []
    m_AddedComponents:
    - targetCorrespondingSourceObject: {fileID: 7250697494626995539, guid: 8d9a7eb22e3050644a4684b2e41d241d,
        type: 3}
      insertIndex: -1
      addedObject: {fileID: 2631247853058133471}
    - targetCorrespondingSourceObject: {fileID: 7250697494626995539, guid: 8d9a7eb22e3050644a4684b2e41d241d,
        type: 3}
      insertIndex: -1
      addedObject: {fileID: 2600463525639310472}
    - targetCorrespondingSourceObject: {fileID: 7250697494626995539, guid: 8d9a7eb22e3050644a4684b2e41d241d,
        type: 3}
      insertIndex: -1
      addedObject: {fileID: 9050125943453093633}
    - targetCorrespondingSourceObject: {fileID: 7250697494626995539, guid: 8d9a7eb22e3050644a4684b2e41d241d,
        type: 3}
      insertIndex: -1
      addedObject: {fileID: 8613692667792242407}
    - targetCorrespondingSourceObject: {fileID: 7250697494626995539, guid: 8d9a7eb22e3050644a4684b2e41d241d,
        type: 3}
      insertIndex: -1
      addedObject: {fileID: 7005428952884013405}
    - targetCorrespondingSourceObject: {fileID: 7250697494626995539, guid: 8d9a7eb22e3050644a4684b2e41d241d,
        type: 3}
      insertIndex: -1
      addedObject: {fileID: 6409130193645411351}
  m_SourcePrefab: {fileID: 100100000, guid: 8d9a7eb22e3050644a4684b2e41d241d, type: 3}
--- !u!1 &3224746920489094328 stripped
GameObject:
  m_CorrespondingSourceObject: {fileID: 7250697494626995539, guid: 8d9a7eb22e3050644a4684b2e41d241d,
    type: 3}
  m_PrefabInstance: {fileID: 5214953729706885611}
  m_PrefabAsset: {fileID: 0}
--- !u!33 &2631247853058133471
MeshFilter:
  m_ObjectHideFlags: 0
  m_CorrespondingSourceObject: {fileID: 0}
  m_PrefabInstance: {fileID: 0}
  m_PrefabAsset: {fileID: 0}
  m_GameObject: {fileID: 3224746920489094328}
  m_Mesh: {fileID: 0}
--- !u!23 &2600463525639310472
MeshRenderer:
  m_ObjectHideFlags: 0
  m_CorrespondingSourceObject: {fileID: 0}
  m_PrefabInstance: {fileID: 0}
  m_PrefabAsset: {fileID: 0}
  m_GameObject: {fileID: 3224746920489094328}
  m_Enabled: 1
  m_CastShadows: 1
  m_ReceiveShadows: 1
  m_DynamicOccludee: 1
  m_StaticShadowCaster: 0
  m_MotionVectors: 1
  m_LightProbeUsage: 1
  m_ReflectionProbeUsage: 1
  m_RayTracingMode: 2
  m_RayTraceProcedural: 0
  m_RayTracingAccelStructBuildFlagsOverride: 0
  m_RayTracingAccelStructBuildFlags: 1
  m_SmallMeshCulling: 1
  m_RenderingLayerMask: 1
  m_RendererPriority: 0
  m_Materials:
  - {fileID: 0}
  m_StaticBatchInfo:
    firstSubMesh: 0
    subMeshCount: 0
  m_StaticBatchRoot: {fileID: 0}
  m_ProbeAnchor: {fileID: 0}
  m_LightProbeVolumeOverride: {fileID: 0}
  m_ScaleInLightmap: 1
  m_ReceiveGI: 1
  m_PreserveUVs: 0
  m_IgnoreNormalsForChartDetection: 0
  m_ImportantGI: 0
  m_StitchLightmapSeams: 1
  m_SelectedEditorRenderState: 3
  m_MinimumChartSize: 4
  m_AutoUVMaxDistance: 0.5
  m_AutoUVMaxAngle: 89
  m_LightmapParameters: {fileID: 0}
  m_SortingLayerID: 0
  m_SortingLayer: 0
  m_SortingOrder: 0
  m_AdditionalVertexStreams: {fileID: 0}
--- !u!54 &9050125943453093633
Rigidbody:
  m_ObjectHideFlags: 0
  m_CorrespondingSourceObject: {fileID: 0}
  m_PrefabInstance: {fileID: 0}
  m_PrefabAsset: {fileID: 0}
  m_GameObject: {fileID: 3224746920489094328}
  serializedVersion: 4
  m_Mass: 1
  m_Drag: 0
  m_AngularDrag: 0.05
  m_CenterOfMass: {x: 0, y: 0, z: 0}
  m_InertiaTensor: {x: 1, y: 1, z: 1}
  m_InertiaRotation: {x: 0, y: 0, z: 0, w: 1}
  m_IncludeLayers:
    serializedVersion: 2
    m_Bits: 0
  m_ExcludeLayers:
    serializedVersion: 2
    m_Bits: 0
  m_ImplicitCom: 1
  m_ImplicitTensor: 1
  m_UseGravity: 0
  m_IsKinematic: 1
  m_Interpolate: 0
  m_Constraints: 0
  m_CollisionDetection: 0
--- !u!65 &8613692667792242407
BoxCollider:
  m_ObjectHideFlags: 0
  m_CorrespondingSourceObject: {fileID: 0}
  m_PrefabInstance: {fileID: 0}
  m_PrefabAsset: {fileID: 0}
  m_GameObject: {fileID: 3224746920489094328}
  m_Material: {fileID: 0}
  m_IncludeLayers:
    serializedVersion: 2
    m_Bits: 0
  m_ExcludeLayers:
    serializedVersion: 2
    m_Bits: 0
  m_LayerOverridePriority: 0
  m_IsTrigger: 0
  m_ProvidesContacts: 0
  m_Enabled: 1
  serializedVersion: 3
  m_Size: {x: 0.0002, y: 0.0002, z: 0.0002}
  m_Center: {x: 0, y: 0, z: 0}
--- !u!114 &7005428952884013405
MonoBehaviour:
  m_ObjectHideFlags: 0
  m_CorrespondingSourceObject: {fileID: 0}
  m_PrefabInstance: {fileID: 0}
  m_PrefabAsset: {fileID: 0}
  m_GameObject: {fileID: 3224746920489094328}
  m_Enabled: 1
  m_EditorHideFlags: 0
  m_Script: {fileID: 11500000, guid: 0ad34abafad169848a38072baa96cdb2, type: 3}
  m_Name: 
  m_EditorClassIdentifier: 
  m_InteractionManager: {fileID: 0}
  m_Colliders: []
  m_InteractionLayers:
    m_Bits: 1
  m_DistanceCalculationMode: 1
  m_SelectMode: 0
  m_FocusMode: 1
  m_CustomReticle: {fileID: 0}
  m_AllowGazeInteraction: 0
  m_AllowGazeSelect: 0
  m_OverrideGazeTimeToSelect: 0
  m_GazeTimeToSelect: 0.5
  m_OverrideTimeToAutoDeselectGaze: 0
  m_TimeToAutoDeselectGaze: 3
  m_AllowGazeAssistance: 0
  m_FirstHoverEntered:
    m_PersistentCalls:
      m_Calls:
      - m_Target: {fileID: 6409130193645411351}
        m_TargetAssemblyTypeName: VR_Koni.ElectroSnare.MoveToPoint, Assembly-CSharp
        m_MethodName: SetHovered
        m_Mode: 6
        m_Arguments:
          m_ObjectArgument: {fileID: 0}
          m_ObjectArgumentAssemblyTypeName: UnityEngine.Object, UnityEngine
          m_IntArgument: 0
          m_FloatArgument: 0
          m_StringArgument: 
          m_BoolArgument: 1
        m_CallState: 2
  m_LastHoverExited:
    m_PersistentCalls:
      m_Calls:
      - m_Target: {fileID: 6409130193645411351}
        m_TargetAssemblyTypeName: VR_Koni.ElectroSnare.MoveToPoint, Assembly-CSharp
        m_MethodName: SetHovered
        m_Mode: 6
        m_Arguments:
          m_ObjectArgument: {fileID: 0}
          m_ObjectArgumentAssemblyTypeName: UnityEngine.Object, UnityEngine
          m_IntArgument: 0
          m_FloatArgument: 0
          m_StringArgument: 
          m_BoolArgument: 0
        m_CallState: 2
  m_HoverEntered:
    m_PersistentCalls:
      m_Calls: []
  m_HoverExited:
    m_PersistentCalls:
      m_Calls: []
  m_FirstSelectEntered:
    m_PersistentCalls:
      m_Calls:
      - m_Target: {fileID: 6409130193645411351}
        m_TargetAssemblyTypeName: VR_Koni.ElectroSnare.MoveToPoint, Assembly-CSharp
        m_MethodName: SetSelected
        m_Mode: 6
        m_Arguments:
          m_ObjectArgument: {fileID: 0}
          m_ObjectArgumentAssemblyTypeName: UnityEngine.Object, UnityEngine
          m_IntArgument: 0
          m_FloatArgument: 0
          m_StringArgument: 
          m_BoolArgument: 1
        m_CallState: 2
  m_LastSelectExited:
    m_PersistentCalls:
      m_Calls:
      - m_Target: {fileID: 6409130193645411351}
        m_TargetAssemblyTypeName: VR_Koni.ElectroSnare.MoveToPoint, Assembly-CSharp
        m_MethodName: SetSelected
        m_Mode: 6
        m_Arguments:
          m_ObjectArgument: {fileID: 0}
          m_ObjectArgumentAssemblyTypeName: UnityEngine.Object, UnityEngine
          m_IntArgument: 0
          m_FloatArgument: 0
          m_StringArgument: 
          m_BoolArgument: 0
        m_CallState: 2
  m_SelectEntered:
    m_PersistentCalls:
      m_Calls: []
  m_SelectExited:
    m_PersistentCalls:
      m_Calls: []
  m_FirstFocusEntered:
    m_PersistentCalls:
      m_Calls: []
  m_LastFocusExited:
    m_PersistentCalls:
      m_Calls: []
  m_FocusEntered:
    m_PersistentCalls:
      m_Calls: []
  m_FocusExited:
    m_PersistentCalls:
      m_Calls: []
  m_Activated:
    m_PersistentCalls:
      m_Calls: []
  m_Deactivated:
    m_PersistentCalls:
      m_Calls: []
  m_StartingHoverFilters: []
  m_StartingSelectFilters: []
  m_StartingInteractionStrengthFilters: []
  m_AttachTransform: {fileID: 0}
  m_SecondaryAttachTransform: {fileID: 0}
  m_UseDynamicAttach: 1
  m_MatchAttachPosition: 1
  m_MatchAttachRotation: 1
  m_SnapToColliderVolume: 1
  m_ReinitializeDynamicAttachEverySingleGrab: 1
  m_AttachEaseInTime: 0.15
  m_MovementType: 2
  m_VelocityDamping: 1
  m_VelocityScale: 1
  m_AngularVelocityDamping: 1
  m_AngularVelocityScale: 1
  m_TrackPosition: 1
  m_SmoothPosition: 0
  m_SmoothPositionAmount: 8
  m_TightenPosition: 0.1
  m_TrackRotation: 1
  m_SmoothRotation: 0
  m_SmoothRotationAmount: 8
  m_TightenRotation: 0.1
  m_TrackScale: 1
  m_SmoothScale: 0
  m_SmoothScaleAmount: 8
  m_TightenScale: 0.1
  m_ThrowOnDetach: 0
  m_ThrowSmoothingDuration: 0.25
  m_ThrowSmoothingCurve:
    serializedVersion: 2
    m_Curve:
    - serializedVersion: 3
      time: 1
      value: 1
      inSlope: 0
      outSlope: 0
      tangentMode: 0
      weightedMode: 0
      inWeight: 0
      outWeight: 0
    m_PreInfinity: 2
    m_PostInfinity: 2
    m_RotationOrder: 4
  m_ThrowVelocityScale: 1.5
  m_ThrowAngularVelocityScale: 1
  m_ForceGravityOnDetach: 0
  m_RetainTransformParent: 1
  m_StartingSingleGrabTransformers: []
  m_StartingMultipleGrabTransformers: []
  m_AddDefaultGrabTransformers: 1
  m_FarAttachMode: 1
--- !u!114 &6409130193645411351
MonoBehaviour:
  m_ObjectHideFlags: 0
  m_CorrespondingSourceObject: {fileID: 0}
  m_PrefabInstance: {fileID: 0}
  m_PrefabAsset: {fileID: 0}
  m_GameObject: {fileID: 3224746920489094328}
  m_Enabled: 1
  m_EditorHideFlags: 0
  m_Script: {fileID: 11500000, guid: d29bbd793f58d5645a026f90f0fc8828, type: 3}
  m_Name: 
  m_EditorClassIdentifier: 
  snapToTransform: {fileID: 0}
  snapToInitialPosition: 0
  snapTime: 2
  speed: 5
  applyTranslation: 1
  applyRotation: 0
