%YAML 1.1
%TAG !u! tag:unity3d.com,2011:
--- !u!114 &11400000
MonoBehaviour:
  m_ObjectHideFlags: 0
  m_CorrespondingSourceObject: {fileID: 0}
  m_PrefabInstance: {fileID: 0}
  m_PrefabAsset: {fileID: 0}
  m_GameObject: {fileID: 0}
  m_Enabled: 1
  m_EditorHideFlags: 0
  m_Script: {fileID: 11500000, guid: bbb281ee3bf0b054c82ac2347e9e782c, type: 3}
  m_Name: Localization-String-Tables-German (de)
  m_EditorClassIdentifier: 
  m_GroupName: Localization-String-Tables-German (de)
  m_GUID: 886ec6b5d25111d4e992c5bcf603cf49
  m_SerializeEntries:
  - m_GUID: 51e6ef6a0fd967045816f5a5205cf867
    m_Address: Canvas2D_de
    m_ReadOnly: 1
    m_SerializedLabels:
    - Locale-de
    - Preload
    FlaggedDuringContentUpdateRestriction: 0
  - m_GUID: 59a95532a872e5e49b4a5346480d3011
    m_Address: CanvasOverKoni_de
    m_ReadOnly: 1
    m_SerializedLabels:
    - Locale-de
    - Preload
    FlaggedDuringContentUpdateRestriction: 0
  - m_GUID: 967a6829437e34244b7f507154350730
    m_Address: UIToolkitStringTableCollection_de
    m_ReadOnly: 1
    m_SerializedLabels:
    - Locale-de
    FlaggedDuringContentUpdateRestriction: 0
  - m_GUID: 9ae9052f853e4044d8e421b4e235d38e
    m_Address: CanvasOverTable_de
    m_ReadOnly: 1
    m_SerializedLabels:
    - Locale-de
    - Preload
    FlaggedDuringContentUpdateRestriction: 0
  m_ReadOnly: 1
  m_Settings: {fileID: 11400000, guid: 8d2db157e75194148bab47f981bb9507, type: 2}
  m_SchemaSet:
    m_Schemas:
    - {fileID: 11400000, guid: 1690c8baad7c3df4f9f2878c2966cc49, type: 2}
    - {fileID: 11400000, guid: 305aa9862999ab94685bcd51b91699d7, type: 2}
