%YAML 1.1
%TAG !u! tag:unity3d.com,2011:
--- !u!114 &11400000
MonoBehaviour:
  m_ObjectHideFlags: 0
  m_CorrespondingSourceObject: {fileID: 0}
  m_PrefabInstance: {fileID: 0}
  m_PrefabAsset: {fileID: 0}
  m_GameObject: {fileID: 0}
  m_Enabled: 1
  m_EditorHideFlags: 0
  m_Script: {fileID: 11500000, guid: e9620f8c34305754d8cc9a7e49e852d9, type: 3}
  m_Name: UIToolkitStringTableCollection_de
  m_EditorClassIdentifier: 
  m_LocaleId:
    m_Code: de
  m_SharedData: {fileID: 11400000, guid: c102c00e53682ec4eaf5288af53e08c6, type: 2}
  m_Metadata:
    m_Items: []
  m_TableData:
  - m_Id: 67682263040
    m_Localized: Ok
    m_Metadata:
      m_Items: []
  - m_Id: 130294833152
    m_Localized: Abbrechen
    m_Metadata:
      m_Items: []
  - m_Id: 4737662279680
    m_Localized: "Lautst\xE4rke"
    m_Metadata:
      m_Items: []
  - m_Id: 5638871408640
    m_Localized: Wie laut die eingeschaltete Schlinge sein soll
    m_Metadata:
      m_Items: []
  - m_Id: 6149532114944
    m_Localized: Sprache
    m_Metadata:
      m_Items: []
  - m_Id: 1484068242677760
    m_Localized: Tiefe
    m_Metadata:
      m_Items: []
  - m_Id: 1484621760782336
    m_Localized: Zeit (ms)
    m_Metadata:
      m_Items: []
  - m_Id: 1484781567959040
    m_Localized: Tiefe (mm)
    m_Metadata:
      m_Items: []
  - m_Id: 7425135911018496
    m_Localized: "Bei dieser VR-Simulation handelt es sich um ein Serious Game, das
      f\xFCr die Ausbildung k\xFCnftiger \xC4rzte konzipiert wurde. Aus technischer
      Sicht dient sie als Simulator zum \xDCben von diagnostischen Verfahren (Pap-Abstrich,
      Kolposkopie mit Essig- und Jodtest, k\xF6rperliche Untersuchung, endozervikale
      K\xFCrettage) und therapeutischen Man\xF6vern (LLETZ)"
    m_Metadata:
      m_Items: []
  - m_Id: 7427768835022848
    m_Localized: Benutzername
    m_Metadata:
      m_Items: []
  - m_Id: 7429521643053056
    m_Localized: Passwort
    m_Metadata:
      m_Items: []
  - m_Id: 7430696664735744
    m_Localized: Anmelden
    m_Metadata:
      m_Items: []
  - m_Id: 7431011724075008
    m_Localized: Als Gast fortfahren
    m_Metadata:
      m_Items: []
  - m_Id: 7432055745060864
    m_Localized: Statistiken werden nur angemeldet gespeichert.
    m_Metadata:
      m_Items: []
  - m_Id: 7433111799504896
    m_Localized: Nicht registriert?
    m_Metadata:
      m_Items: []
  - m_Id: 7433366557335552
    m_Localized: Registieren
    m_Metadata:
      m_Items: []
  - m_Id: 7434678405603328
    m_Localized: Passwort wiederholen
    m_Metadata:
      m_Items: []
  - m_Id: 7435780404453376
    m_Localized: Registrieren
    m_Metadata:
      m_Items: []
  - m_Id: 7436036055670784
    m_Localized: "Passwort ist nach Registrierung unver\xE4nderbar."
    m_Metadata:
      m_Items: []
  - m_Id: 7436214460391424
    m_Localized: Schon registriert?
    m_Metadata:
      m_Items: []
  - m_Id: 7436688651624448
    m_Localized: Anmelden
    m_Metadata:
      m_Items: []
  - m_Id: 7638516203298816
    m_Localized: Alle Statistiken
    m_Metadata:
      m_Items: []
  - m_Id: 7639204253704192
    m_Localized: Graphen
    m_Metadata:
      m_Items: []
  - m_Id: 7640190024196096
    m_Localized: Datum
    m_Metadata:
      m_Items: []
  - m_Id: 7640265001574400
    m_Localized: Zeit
    m_Metadata:
      m_Items: []
  - m_Id: 7640331535818752
    m_Localized: Max Tiefe
    m_Metadata:
      m_Items: []
  - m_Id: 7642059362574336
    m_Localized: Herausgeschnitten
    m_Metadata:
      m_Items: []
  - m_Id: 8462073661530112
    m_Localized: Startseite
    m_Metadata:
      m_Items: []
  - m_Id: 8462174807171072
    m_Localized: Statistiken
    m_Metadata:
      m_Items: []
  - m_Id: 8462387550658560
    m_Localized: Starthilfe
    m_Metadata:
      m_Items: []
  - m_Id: 8462599170072576
    m_Localized: Einstellungen
    m_Metadata:
      m_Items: []
  - m_Id: 8463111940513792
    m_Localized: Abmelden
    m_Metadata:
      m_Items: []
  - m_Id: 8463161835954176
    m_Localized: Beenden
    m_Metadata:
      m_Items: []
  - m_Id: 8488452331446272
    m_Localized: Benutzername eingeben
    m_Metadata:
      m_Items: []
  - m_Id: 8488549979037696
    m_Localized: Passwort eingeben
    m_Metadata:
      m_Items: []
  - m_Id: 8488627292643328
    m_Localized: Passwort wiederholen
    m_Metadata:
      m_Items: []
  - m_Id: 8827807503785984
    m_Localized: '<size=120%><b>Datum & Zeit:</b></size>

      LLETZ-Wert:

      Maximale
      Tiefe:

      Kontaktzeit:

      Volume:

      Zeit in der die Schlinge an
      war:

'
    m_Metadata:
      m_Items: []
  - m_Id: 9952967220830208
    m_Localized: Bitte geben Sie Benutzername und Passwort ein
    m_Metadata:
      m_Items: []
  - m_Id: 9953039039897600
    m_Localized: "Ung\xFCltige Benutzername oder Passwort."
    m_Metadata:
      m_Items: []
  - m_Id: 9957426072166400
    m_Localized: "Die Passw\xF6rter stimmen nicht \xFCberein"
    m_Metadata:
      m_Items: []
  - m_Id: 9957756855951360
    m_Localized: Dieser Benutzer existiert bereits
    m_Metadata:
      m_Items: []
  - m_Id: 10908288072327168
    m_Localized: Startseite
    m_Metadata:
      m_Items: []
  - m_Id: 10908958619901952
    m_Localized: Statistiken
    m_Metadata:
      m_Items: []
  - m_Id: 10909064756764672
    m_Localized: Starthilfe
    m_Metadata:
      m_Items: []
  - m_Id: 10909138048032768
    m_Localized: Einstellungen
    m_Metadata:
      m_Items: []
  - m_Id: 10909254377054208
    m_Localized: Tutorials
    m_Metadata:
      m_Items: []
  - m_Id: 11016678815604736
    m_Localized: Admin
    m_Metadata:
      m_Items: []
  - m_Id: 11018303865135104
    m_Localized: Alle Statistiken exportieren
    m_Metadata:
      m_Items: []
  - m_Id: 11018887695474688
    m_Localized: Exportieren
    m_Metadata:
      m_Items: []
  - m_Id: 11018544056147968
    m_Localized: Alle Statistiken auf den Desktop exportieren
    m_Metadata:
      m_Items: []
  - m_Id: 11029057444028416
    m_Localized: "Es existiert kein Versuch der hier\ndargestellt werden k\xF6nnte."
    m_Metadata:
      m_Items: []
  - m_Id: 13180677743857664
    m_Localized: Statistiken Exportieren
    m_Metadata:
      m_Items: []
  - m_Id: 13180800825708544
    m_Localized: "Ich bin damit einverstanden, dass die exportierten Daten nur f\xFCr
      akademische Zwecke und nicht f\xFCr die Benotung verwendet werden sollen."
    m_Metadata:
      m_Items: []
  - m_Id: 13181925004038144
    m_Localized: Abbrechen
    m_Metadata:
      m_Items: []
  - m_Id: 13181990644895744
    m_Localized: Zustimmen
    m_Metadata:
      m_Items: []
  - m_Id: 14325656507797504
    m_Localized: Operation starten
    m_Metadata:
      m_Items: []
  - m_Id: 14325895444713472
    m_Localized: "Sie k\xF6nnen nun die Operation starten. Stellen Sie sicher, dass
      Ihr VR-Headset eingeschaltet und bereit ist, bevor Sie fortfahren."
    m_Metadata:
      m_Items: []
  - m_Id: 14325960347373568
    m_Localized: Abbrechen
    m_Metadata:
      m_Items: []
  - m_Id: 14326314396962816
    m_Localized: Starten
    m_Metadata:
      m_Items: []
  - m_Id: 14327427162591232
    m_Localized: Abmelden
    m_Metadata:
      m_Items: []
  - m_Id: 14327511019311104
    m_Localized: "Sie k\xF6nnen sich nun von ihrem Account abmelden."
    m_Metadata:
      m_Items: []
  - m_Id: 14327629797806080
    m_Localized: Abbrechen
    m_Metadata:
      m_Items: []
  - m_Id: 14327671371747328
    m_Localized: Abmelden
    m_Metadata:
      m_Items: []
  - m_Id: 14333651895603200
    m_Localized: Als Gast fortfahren
    m_Metadata:
      m_Items: []
  - m_Id: 14333801070219264
    m_Localized: Keine Daten werden gespeichert, wenn Sie sich als Gast anmelden.
      Bitte registrieren Sie sich, um die Satistiken zu speichern.
    m_Metadata:
      m_Items: []
  - m_Id: 14333972290097152
    m_Localized: Registrieren
    m_Metadata:
      m_Items: []
  - m_Id: 14334034680369152
    m_Localized: Als Gast fortfahren
    m_Metadata:
      m_Items: []
  - m_Id: 14682611743084544
    m_Localized: Program beenden
    m_Metadata:
      m_Items: []
  - m_Id: 14682820258713600
    m_Localized: "Sie k\xF6nnen nun den VR Koni Trainer beenden. Vielen dank f\xFCr
      die Nutzung des VR KoniTrainers!"
    m_Metadata:
      m_Items: []
  - m_Id: 14682985988247552
    m_Localized: Abbrechen
    m_Metadata:
      m_Items: []
  - m_Id: 14683097279909888
    m_Localized: Beenden
    m_Metadata:
      m_Items: []
  - m_Id: 15972805410353152
    m_Localized: LLETZ Punktzahl
    m_Metadata:
      m_Items: []
  - m_Id: 15977187164442624
    m_Localized: Herausgeschnitten Vorderseite
    m_Metadata:
      m_Items: []
  - m_Id: 15977598290120704
    m_Localized: "Herausgeschnitten R\xFCckseite"
    m_Metadata:
      m_Items: []
  references:
    version: 2
    RefIds: []
